0.387447 
0.246430 
0.111724 
0.846781 
0.659659 
0.779662 
0.358563 
0.184135 
0.010180 
0.085915 
0.329467 
0.300830 
0.506571 
0.386605 
0.937296 
0.159541 
0.779710 
0.177462 
0.805293 
0.562384 
0.470075 
0.359612 
0.371774 
0.382873 
0.256307 
0.972038 
0.660565 
0.505287 
0.198021 
0.104384 
0.888413 
0.362960 
0.453714 
0.064794 
0.850762 
0.279433 
0.911920 
0.059770 
0.615966 
0.563943 
0.668270 
0.335443 
0.037794 
0.285785 
0.931249 
0.799852 
0.331075 
0.737420 
0.567440 
0.016064 
0.425515 
0.029378 
0.784177 
0.980815 
0.689944 
0.779685 
0.597979 
0.284609 
0.746255 
0.693874 
0.442523 
0.419128 
0.150771 
0.540292 
0.196360 
0.749183 
0.715660 
0.704497 
0.736287 
0.656687 
0.891096 
0.491080 
0.341777 
0.962709 
0.124944 
0.208612 
0.154970 
0.807605 
0.067367 
0.490603 
0.598418 
0.365020 
0.688559 
0.856907 
0.900638 
0.951496 
0.900047 
0.006537 
0.041932 
0.870892 
0.444401 
0.442541 
0.330599 
0.939673 
0.712841 
0.938907 
0.530956 
0.021803 
0.820391 
0.287496 
0.867380 
0.860211 
0.550632 
0.457238 
0.850024 
0.347778 
0.238461 
0.050938 
0.134958 
0.578133 
0.904369 
0.771166 
0.704143 
0.422411 
0.957857 
0.755589 
0.366003 
0.550614 
0.221429 
0.255945 
0.735253 
0.315545 
0.422405 
0.748442 
0.353089 
0.446459 
0.033935 
0.728014 
0.621376 
0.125795 
0.215456 
0.308377 
0.030952 
0.201455 
0.067430 
0.000152 
0.636429 
0.802754 
0.394338 
0.262736 
0.283828 
0.713644 
0.194145 
0.580080 
0.247472 
0.935907 
0.564557 
0.879609 
0.992676 
0.946253 
0.478376 
0.124994 
0.064156 
0.386665 
0.558246 
0.922429 
0.934308 
0.824812 
0.183582 
0.393108 
0.912782 
0.534170 
0.451462 
0.285597 
0.622774 
0.181772 
0.927146 
0.713974 
0.832368 
0.496483 
0.963217 
0.843314 
0.113898 
0.936179 
0.688364 
0.307112 
0.860655 
0.948458 
0.681841 
0.563195 
0.149974 
0.986210 
0.815024 
0.912220 
0.683966 
0.303031 
0.731797 
0.276210 
0.615239 
0.294852 
0.518275 
0.738924 
0.744021 
0.403459 
0.160928 
0.022401 
0.105879 
0.931999 
0.615549 
0.633284 
0.006687 
0.214866 
0.081003 
0.161465 
0.091804 
0.134133 
0.071796 
0.268847 
0.040067 
0.744080 
0.944833 
0.221361 
0.600565 
0.436093 
0.173561 
0.194894 
0.189121 
0.929892 
0.490544 
0.796324 
0.184799 
0.227785 
0.849808 
0.494287 
0.985739 
0.172227 
0.950103 
0.382335 
0.447633 
0.359891 
0.144467 
0.816639 
0.181711 
0.832973 
0.406296 
0.421451 
0.533254 
0.430317 
0.002421 
0.664659 
0.256788 
0.591923 
0.357850 
0.548054 
0.780689 
0.558880 
0.301692 
0.460615 
0.920918 
0.886181 
0.879474 
0.970343 
0.752305 
0.015543 
0.992342 
0.455763 
0.520498 
0.088893 
0.785105 
0.717694 
0.545402 
0.744136 
0.687323 
0.611294 
0.082342 
0.377002 
0.404970 
0.687378 
0.405015 
0.554467 
0.618265 
0.417462 
0.844879 
0.551510 
0.813150 
0.315395 
0.859363 
0.217365 
0.115356 
0.085872 
0.154633 
0.802180 
0.964472 
0.196792 
0.778050 
0.026483 
0.113879 
0.186623 
0.925405 
0.549710 
0.031173 
0.876555 
0.950212 
0.482801 
0.432901 
0.619808 
0.230256 
0.700548 
0.980993 
0.163515 
0.630785 
0.641791 
0.636527 
0.987215 
0.386914 
0.261725 
0.457809 
0.114374 
0.358105 
0.785349 
0.305116 
0.730674 
0.645078 
0.839366 
0.520610 
0.381409 
0.619245 
0.604760 
0.535555 
0.730112 
0.376313 
0.121742 
0.366922 
0.810780 
0.897704 
0.346714 
0.015903 
0.028783 
0.849642 
0.939559 
0.762706 
0.965803 
0.492718 
0.554943 
0.652237 
0.973129 
0.903730 
0.025045 
0.574323 
0.729376 
0.151670 
0.049482 
0.534939 
0.039868 
0.499980 
0.210334 
0.475991 
0.654049 
0.048973 
0.858313 
0.039508 
0.640555 
0.506435 
0.577116 
0.879055 
0.184353 
0.201457 
0.131960 
0.822207 
0.735343 
0.893488 
0.159685 
0.422292 
0.628908 
0.596781 
0.295739 
0.782024 
0.381772 
0.984771 
0.205128 
0.779750 
0.845020 
0.461285 
0.679125 
0.797155 
0.235575 
0.752230 
0.920062 
0.994638 
0.882963 
0.503402 
0.005880 
0.015086 
0.095937 
0.786960 
0.553593 
0.719519 
0.228478 
0.012692 
0.120224 
0.632978 
0.015211 
0.940266 
0.999566 
0.378219 
0.895206 
0.590050 
0.835056 
0.482346 
0.059441 
0.460336 
0.318711 
0.910160 
0.897861 
0.651168 
0.246053 
0.234025 
0.548435 
0.392823 
0.754795 
0.392573 
0.265421 
0.346891 
0.934263 
0.373853 
0.482526 
0.238215 
0.531249 
0.210122 
0.295207 
0.531986 
0.507584 
0.499121 
0.911498 
0.730343 
0.899712 
0.804925 
0.447934 
0.235006 
0.067124 
0.284199 
0.431738 
0.455124 
0.979352 
0.926906 
0.597574 
0.583680 
0.113072 
0.399200 
0.942879 
0.214325 
0.170452 
0.346885 
0.620189 
0.435735 
0.415828 
0.285196 
0.905089 
0.682778 
0.104263 
0.083478 
0.013394 
0.918762 
0.367573 
0.422025 
0.575710 
0.186023 
0.022226 
0.658001 
0.458649 
0.199989 
0.196520 
0.693574 
0.747417 
0.543334 
0.525856 
0.406714 
0.556972 
0.730631 
0.293512 
0.784555 
0.075819 
0.471680 
0.399156 
0.911112 
0.428022 
0.945084 
0.404529 
0.242497 
0.872619 
0.493988 
0.423574 
0.552366 
0.248569 
0.257159 
0.209735 
0.580623 
0.835151 
0.852660 
0.643897 
0.985008 
0.978982 
0.682626 
0.785478 
0.348798 
0.780515 
0.046397 
0.352833 
0.356998 
0.129735 
0.982246 
0.415754 
0.406485 
0.782691 
0.433204 
0.576278 
0.650468 
0.033011 
0.404012 
0.958944 
0.595520 
0.933078 
0.937041 
0.755739 
0.538914 
0.824291 
0.010747 
0.746519 
0.103035 
0.048411 
0.185691 
0.472840 
0.009636 
0.858180 
0.473490 
0.149935 
0.245455 
0.056791 
0.205245 
0.465489 
0.460975 
0.351056 
0.441003 
0.329407 
0.572097 
0.992353 
0.717851 
0.360996 
0.572729 
0.380335 
0.372083 
0.424275 
0.743127 
0.360080 
0.626489 
0.852870 
0.120025 
0.174343 
0.950628 
0.977501 
0.252005 
0.284620 
0.838286 
0.802101 
0.369961 
0.362811 
0.271741 
0.259469 
0.994394 
0.046263 
0.676333 
0.501685 
0.113288 
0.461315 
0.718631 
0.960603 
0.528900 
0.935417 
0.989587 
0.465716 
0.363796 
0.090336 
0.844204 
0.413706 
0.757358 
0.554033 
0.476240 
0.266590 
0.135277 
0.077701 
0.846593 
0.337043 
0.673994 
0.104433 
0.587366 
0.114803 
0.249345 
0.414173 
0.715467 
0.869671 
0.815428 
0.232449 
0.346335 
0.960612 
0.301313 
0.154196 
0.744436 
0.282895 
0.328839 
0.001332 
0.563914 
0.444134 
0.161363 
0.703462 
0.544031 
0.254620 
0.393111 
0.244619 
0.582689 
0.052743 
0.602293 
0.039971 
0.862410 
0.343110 
0.112233 
0.593427 
0.630077 
0.781380 
0.736514 
0.791597 
0.648711 
0.911908 
0.606076 
0.736446 
0.713252 
0.689987 
0.919870 
0.969546 
0.328926 
0.094816 
0.806533 
0.682735 
0.173247 
0.481010 
0.939338 
0.138072 
0.659654 
0.194039 
0.626484 
0.620735 
0.440977 
0.658947 
0.447152 
0.851604 
0.707325 
0.428546 
0.620197 
0.641192 
0.887750 
0.993604 
0.728354 
0.505823 
0.048929 
0.108219 
0.858296 
0.915944 
0.671660 
0.462336 
0.961390 
0.079917 
0.385913 
0.016436 
0.591907 
0.568236 
0.012271 
0.589805 
0.360217 
0.025435 
0.978580 
0.132194 
0.550577 
0.863438 
0.682541 
0.034969 
0.440198 
0.439827 
0.766112 
0.999839 
0.257466 
0.885814 
0.049722 
0.331656 
0.729554 
0.498702 
0.546660 
0.224639 
0.122981 
0.485212 
0.874042 
0.641425 
0.448237 
0.137144 
0.141159 
0.982596 
0.971884 
0.428893 
0.756039 
0.558591 
0.756654 
0.975920 
0.041874 
0.351003 
0.476648 
0.174935 
0.355905 
0.888469 
0.069153 
0.092747 
0.205804 
0.615199 
0.273432 
0.747785 
0.305726 
0.765444 
0.252886 
0.671016 
0.131914 
0.942448 
0.444583 
0.357995 
0.169801 
0.499074 
0.452166 
0.066216 
0.887882 
0.907784 
0.782654 
0.471944 
0.796142 
0.875647 
0.672252 
0.070383 
0.124472 
0.425366 
0.782666 
0.589147 
0.472136 
0.033788 
0.180074 
0.931820 
0.590764 
0.506336 
0.218439 
0.952051 
0.362260 
0.458547 
0.830810 
0.790665 
0.441023 
0.624034 
0.955508 
0.663479 
0.266491 
0.723155 
0.561078 
0.972981 
0.300873 
0.497020 
0.283954 
0.074208 
0.111397 
0.075307 
0.996192 
0.599598 
0.788968 
0.861269 
0.827068 
0.936924 
0.035853 
0.139711 
0.725442 
0.872094 
0.374103 
0.216188 
0.576010 
0.025647 
0.043505 
0.933449 
0.401652 
0.784921 
0.242629 
0.608543 
0.893184 
0.629420 
0.924147 
0.995805 
0.150090 
0.024797 
0.911264 
0.147997 
0.089943 
0.715694 
0.175014 
0.159722 
0.478932 
0.948732 
0.741070 
0.672333 
0.070345 
0.306105 
0.936833 
0.856937 
0.890847 
0.588587 
0.162586 
0.176045 
0.747564 
0.945286 
0.657980 
0.543832 
0.597653 
0.234603 
0.819768 
0.788496 
0.589060 
0.436260 
0.549739 
0.352969 
0.995791 
0.364964 
0.966174 
0.024741 
0.777839 
0.440182 
0.630500 
0.314025 
0.921815 
0.223325 
0.374486 
0.308144 
0.037822 
0.605170 
0.835864 
0.588252 
0.363455 
0.139885 
0.116534 
0.981217 
0.541692 
0.086510 
0.256096 
0.209775 
0.314610 
0.903752 
0.520696 
0.162236 
0.143612 
0.064053 
0.854645 
0.974457 
0.929025 
0.409520 
0.901611 
0.484497 
0.469674 
0.167828 
0.082858 
0.633161 
0.310979 
0.466354 
0.211069 
0.001446 
0.797611 
0.368047 
0.015138 
0.714978 
0.218579 
0.688717 
0.246007 
0.266085 
0.132071 
0.344210 
0.754390 
0.889239 
0.710436 
0.246475 
0.451389 
0.931224 
0.615668 
0.258290 
0.631103 
0.695532 
0.403660 
0.193482 
0.307074 
0.692955 
0.630360 
0.249824 
0.043422 
0.531451 
0.176201 
0.521902 
0.871282 
0.613613 
0.271432 
0.854540 
0.157460 
0.259419 
0.670580 
0.225957 
0.825967 
0.324096 
0.488387 
0.763724 
0.737676 
0.636026 
0.249141 
0.734317 
0.339505 
0.302768 
0.127142 
0.010140 
0.924929 
0.910006 
0.382148 
0.701392 
0.672342 
0.127674 
0.200969 
0.902827 
0.891836 
0.377682 
0.250193 
0.602701 
0.625451 
0.019683 
0.819733 
0.517945 
0.909434 
0.118625 
0.946149 
0.927045 
0.094805 
0.415257 
0.322862 
0.846254 
0.947950 
0.729221 
0.683850 
0.641412 
0.315883 
0.732147 
0.157648 
0.760071 
0.091910 
0.967654 
0.608966 
0.894952 
0.194147 
0.988058 
0.241315 
0.223421 
0.401998 
0.780906 
0.839212 
0.409500 
0.402401 
0.771750 
0.249125 
0.865741 
0.682186 
0.977393 
0.185524 
0.216183 
0.312922 
0.752012 
0.367737 
0.604456 
0.383435 
0.550488 
0.385442 
0.665435 
0.014714 
0.813124 
0.349856 
0.715516 
0.958894 
0.507417 
0.666168 
0.429465 
0.849499 
0.654233 
0.504258 
0.368516 
0.685249 
0.099208 
0.047647 
0.869336 
0.651867 
0.610459 
0.421946 
0.503707 
0.164141 
0.093172 
0.685325 
0.142671 
0.528712 
0.003573 
0.425058 
0.224341 
0.659942 
0.503102 
0.600057 
0.200174 
0.137401 
0.023789 
0.939543 
0.695501 
0.554233 
0.295414 
0.042632 
0.853760 
0.596682 
0.018527 
0.933191 
0.009788 
0.640956 
0.788685 
0.526503 
0.291248 
0.628329 
0.425469 
0.546370 
0.190797 
0.744489 
0.212856 
0.100122 
0.896385 
0.822337 
0.882784 
0.088124 
0.700188 
0.170224 
0.833044 
0.728057 
0.775893 
0.763495 
0.057099 
0.609848 
0.898472 
0.516131 
0.506172 
0.255617 
0.971603 
0.581124 
0.968386 
0.041438 
0.188628 
0.519760 
0.640854 
0.340731 
0.648330 
0.355438 
0.850430 
0.542805 
0.673080 
0.256573 
0.121338 
0.040606 
0.887943 
0.753187 
0.802079 
0.441406 
0.075173 
0.154230 
0.247244 
0.079226 
0.853160 
0.157177 
0.616663 
0.528450 
0.191220 
0.759751 
0.614998 
0.152064 
0.454637 
0.682098 
0.281259 
0.624863 
0.941730 
0.566803 
0.693116 
0.978586 
0.899117 
0.648480 
0.982921 
0.163815 
0.509787 
0.627348 
0.800001 
0.417769 
0.054834 
0.519144 
0.134532 
0.366974 
0.696621 
0.129584 
0.785850 
0.050309 
0.815616 
0.866939 
0.196896 
0.607394 
0.996680 
0.042374 
0.138823 
0.222954 
0.583010 
0.671106 
0.723196 
0.504439 
0.644630 
0.036369 
0.193852 
0.749546 
0.308178 
0.749052 
0.852037 
0.099355 
0.597778 
0.720602 
0.568714 
0.235110 
0.910636 
0.950620 
0.516315 
0.707088 
0.798795 
0.199689 
0.106841 
0.618575 
0.022224 
0.037562 
0.115364 
0.818697 
0.376899 
0.229156 
0.368140 
0.174540 
0.774780 
0.330031 
0.315780 
0.724587 
0.584955 
0.777756 
0.359576 
0.184733 
0.573689 
0.483095 
0.421627 
0.317325 
0.972572 
0.258223 
0.567100 
0.352067 
0.312030 
0.009398 
0.668127 
0.885688 
0.421318 
0.858580 
0.947992 
0.376107 
0.203293 
0.179169 
0.306294 
0.850312 
0.525603 
0.828442 
0.106876 
0.617142 
0.566827 
0.260936 
0.002308 
0.287255 
0.821270 
0.895115 
0.995808 
0.008438 
0.732843 
0.084617 
0.633349 
0.805086 
0.829965 
0.567221 
0.260043 
0.784532 
0.169205 
0.274258 
0.004903 
0.397561 
0.026552 
0.854699 
0.204892 
0.860351 
0.056125 
0.223512 
0.045281 
0.750992 
0.698056 
0.918788 
0.908923 
0.805524 
0.999677 
0.800766 
0.322915 
0.025145 
0.732823 
0.472787 
0.392588 
0.860014 
0.057462 
0.384545 
0.141840 
0.045681 
0.697995 
0.913512 
0.383546 
0.243111 
0.907098 
0.702018 
0.895638 
0.947974 
0.936692 
0.996787 
0.396942 
0.659936 
0.822950 
0.622367 
0.700506 
0.489515 
0.508817 
0.779713 
0.040486 
0.901007 
0.732046 
0.615783 
0.755188 
0.284467 
0.206249 
0.652186 
0.928120 
0.804574 
0.350436 
0.270188 
0.744618 
0.722992 
0.856720 
0.918819 
0.269008 
0.688152 
0.617997 
0.071553 
0.188398 
0.335569 
0.311046 
0.420204 
0.087739 
0.559868 
0.667625 
0.115302 
0.315660 
0.980796 
0.885870 
0.022758 
0.863286 
0.244994 
0.433602 
0.135376 
0.215600 
0.774729 
0.087186 
0.400378 
0.590111 
0.196524 
0.696812 
0.592969 
0.464190 
0.241155 
0.412770 
0.770494 
0.035339 
0.607550 
0.079474 
0.415376 
0.985478 
0.842648 
0.052403 
0.727518 
0.114958 
0.485381 
0.868594 
0.016704 
0.818908 
0.783874 
0.193708 
0.912844 
0.683690 
0.888394 
0.712870 
0.484892 
0.833218 
0.090746 
0.025492 
0.335728 
0.486923 
0.225363 
0.554709 
0.681148 
0.834943 
0.895873 
0.437598 
0.399655 
0.440120 
0.309626 
0.446953 
0.964390 
0.462348 
0.495992 
0.021540 
0.192285 
0.898134 
0.389292 
0.102046 
0.349699 
0.178546 
0.249091 
0.640984 
0.975754 
0.920664 
0.053807 
0.903085 
0.189999 
0.992615 
0.326500 
0.227543 
0.943711 
0.810847 
0.924444 
0.718502 
0.879257 
0.865062 
0.357425 
0.136276 
0.805780 
0.681125 
0.431387 
0.947115 
0.951173 
0.032081 
0.276167 
0.067753 
0.826949 
0.396323 
0.581177 
0.343534 
0.971210 
0.603406 
0.667641 
0.863325 
0.420087 
0.073411 
0.871397 
0.694654 
0.841425 
0.676246 
0.701402 
0.895417 
0.587414 
0.325195 
0.994851 
0.207538 
0.286253 
0.833108 
0.770248 
0.200579 
0.764766 
0.615923 
0.964267 
0.503691 
0.478702 
0.585697 
0.979592 
0.349099 
0.261003 
0.589942 
0.745385 
0.081984 
0.374956 
0.087008 
0.318151 
0.453230 
0.161081 
0.059868 
0.444865 
0.285274 
0.199178 
0.509812 
0.019478 
0.830103 
0.200386 
0.426563 
0.733088 
0.526797 
0.269299 
0.767835 
0.954412 
0.117687 
0.024888 
0.422040 
0.064384 
0.125603 
0.092418 
0.232689 
0.211193 
0.609811 
0.394527 
0.726698 
0.961298 
0.750217 
0.078740 
0.867953 
0.362771 
0.797007 
0.786387 
0.331355 
0.949991 
0.828490 
0.629130 
0.295624 
0.617005 
0.988503 
0.344009 
0.239645 
0.000397 
0.909290 
0.627540 
0.786229 
0.748716 
0.616898 
0.183402 
0.843593 
0.715993 
0.651801 
0.612807 
0.873786 
0.792677 
0.724425 
0.409154 
0.997653 
0.623809 
0.353165 
0.182723 
0.320904 
0.255607 
0.941085 
0.892907 
0.988052 
0.952472 
0.874207 
0.162244 
0.146688 
0.649803 
0.790086 
0.072302 
0.244519 
0.010707 
0.232541 
0.254855 
0.912188 
0.367547 
0.038034 
0.650832 
0.816367 
0.083750 
0.011481 
0.365615 
0.412765 
0.416021 
0.463376 
0.466007 
0.548159 
0.532691 
0.507693 
0.781091 
0.289965 
0.550502 
0.574665 
0.203892 
0.555237 
0.214116 
0.549157 
0.069770 
0.860448 
0.208383 
0.238632 
0.380585 
0.287366 
0.750523 
0.318939 
0.107370 
0.806136 
0.252058 
0.503905 
0.039851 
0.624194 
0.387442 
0.308274 
0.332050 
0.931593 
0.467990 
0.000071 
0.725781 
0.399483 
0.022924 
0.637742 
0.439352 
0.591769 
0.617985 
0.454097 
0.049085 
0.719694 
0.740093 
0.404799 
0.051413 
0.948005 
0.877387 
0.827650 
0.448637 
0.884475 
0.853718 
0.647737 
0.506783 
0.076023 
0.362407 
0.231091 
0.860181 
0.634390 
0.731457 
0.156355 
0.949647 
0.400423 
0.611387 
0.798489 
0.686370 
0.000048 
0.502658 
0.985620 
0.007004 
0.040929 
0.103423 
0.603407 
0.046190 
0.421872 
0.355863 
0.697670 
0.362978 
0.324555 
0.677476 
0.583252 
0.240455 
0.374867 
0.204735 
0.258642 
0.847314 
0.427041 
0.656983 
0.531272 
0.937019 
0.333422 
0.360912 
0.746494 
0.863929 
0.022054 
0.849524 
0.807625 
0.542783 
0.433783 
0.602437 
0.335105 
0.778107 
0.096720 
0.451955 
0.761949 
0.625833 
0.001492 
0.017172 
0.456854 
0.221564 
0.371421 
0.441232 
0.060690 
0.364042 
0.376869 
0.301240 
0.918389 
0.477351 
0.180392 
0.297038 
0.829299 
0.618124 
0.663600 
0.616203 
0.261267 
0.872499 
0.005368 
0.365255 
0.591972 
0.924839 
0.458005 
0.424208 
0.654962 
0.764236 
0.379644 
0.454069 
0.643802 
0.735155 
0.633822 
0.782944 
0.034487 
0.100862 
0.041741 
0.160518 
0.835003 
0.559434 
0.172022 
0.938799 
0.542159 
0.830258 
0.317444 
0.232739 
0.701994 
0.519784 
0.286146 
0.027673 
0.152803 
0.783923 
0.518752 
0.416823 
0.108548 
0.631428 
0.126734 
0.580644 
0.184500 
0.494911 
0.335441 
0.206849 
0.105166 
0.153633 
0.873330 
0.724371 
0.003584 
0.810415 
0.245622 
0.885937 
0.839281 
0.355567 
0.315247 
0.154186 
0.388423 
0.305440 
0.821176 
0.279882 
0.851454 
0.195285 
0.355002 
0.345976 
0.585631 
0.456251 
0.038449 
0.380016 
0.546487 
0.068258 
0.213226 
0.771898 
0.630379 
0.808721 
0.021490 
0.011757 
0.398797 
0.209696 
0.587915 
0.822722 
0.749076 
0.929145 
0.524546 
0.538645 
0.667294 
0.871261 
0.181325 
0.699107 
0.188910 
0.199816 
0.770966 
0.529896 
0.004715 
0.955361 
0.877279 
0.872309 
0.494025 
0.531102 
0.032261 
0.750157 
0.758352 
0.583563 
0.370117 
0.492000 
0.527182 
0.448724 
0.142401 
0.652744 
0.674670 
0.749763 
0.305926 
0.804348 
0.299967 
0.274087 
0.270485 
0.763491 
0.318575 
0.357004 
0.675482 
0.033538 
0.150023 
0.421550 
0.212894 
0.760072 
0.643306 
0.839647 
0.207796 
0.438348 
0.732120 
0.104752 
0.444565 
0.490553 
0.694426 
0.930808 
0.155151 
0.052681 
0.608676 
0.242941 
0.558302 
0.678501 
0.466505 
0.658405 
0.808349 
0.856439 
0.710878 
0.263334 
0.296107 
0.185845 
0.599377 
0.778297 
0.095766 
0.409976 
0.631246 
0.765313 
0.515607 
0.046789 
0.440640 
0.781269 
0.991146 
0.849279 
0.059986 
0.766725 
0.724907 
0.754683 
0.201431 
0.323839 
0.597079 
0.977114 
0.451428 
0.496305 
0.971656 
0.763005 
0.979765 
0.202831 
0.031669 
0.158148 
0.719703 
0.777282 
0.644958 
0.338065 
0.654652 
0.045656 
0.867485 
0.102962 
0.946969 
0.379498 
0.134521 
0.312880 
0.898684 
0.780790 
0.193041 
0.173941 
0.893316 
0.770765 
0.792117 
0.213558 
0.193373 
0.646739 
0.111287 
0.505913 
0.684922 
0.157028 
0.373375 
0.808372 
0.909322 
0.160690 
0.737948 
0.555696 
0.187857 
0.690014 
0.299816 
0.632268 
0.235784 
0.489343 
0.758264 
0.620207 
0.247775 
0.653208 
0.330786 
0.119203 
0.656856 
0.947320 
0.841154 
0.146388 
0.687493 
0.664213 
0.510489 
0.434722 
0.383588 
0.842294 
0.250835 
0.291480 
0.560969 
0.626664 
0.449719 
0.864425 
0.953957 
0.816527 
0.720063 
0.122042 
0.082954 
0.839123 
0.350551 
0.905637 
0.577891 
0.051087 
0.215654 
0.146685 
0.416301 
0.877558 
0.092959 
0.929845 
0.935838 
0.265358 
0.035679 
0.466467 
0.584380 
0.726743 
0.333494 
0.063682 
0.891637 
0.828963 
0.372950 
0.765463 
0.437401 
0.518272 
0.560189 
0.245506 
0.128305 
0.610483 
0.613568 
0.234931 
0.857610 
0.115305 
0.882515 
0.388909 
0.299822 
0.752914 
0.265170 
0.525548 
0.229235 
0.056386 
0.827781 
0.115814 
0.541923 
0.624684 
0.000376 
0.163615 
0.009517 
0.753001 
0.703710 
0.356341 
0.670412 
0.090995 
0.822655 
0.423220 
0.101588 
0.097589 
0.106357 
0.618699 
0.200987 
0.423198 
0.809022 
0.328916 
0.273350 
0.818829 
0.206466 
0.654567 
0.576013 
0.563713 
0.314677 
0.145664 
0.130217 
0.842667 
0.474612 
0.231697 
0.781042 
0.682424 
0.161219 
0.141194 
0.668743 
0.658733 
0.643806 
0.186788 
0.822098 
0.613746 
0.932222 
0.661416 
0.249203 
0.046692 
0.037141 
0.718269 
0.243418 
0.145676 
0.043955 
0.808830 
0.840724 
0.229517 
0.747839 
0.281947 
0.338252 
0.329206 
0.066634 
0.077153 
0.494832 
0.376097 
0.416587 
0.619685 
0.663530 
0.635509 
0.340202 
0.744755 
0.695506 
0.586577 
0.882742 
0.957209 
0.860079 
0.320362 
0.663588 
0.905633 
0.685411 
0.999125 
0.499394 
0.272900 
0.693410 
0.995013 
0.210378 
0.415731 
0.162008 
0.249722 
0.393708 
0.340167 
0.928525 
0.452724 
0.526567 
0.501154 
0.810326 
0.804838 
0.117821 
0.618350 
0.772728 
0.284838 
0.269120 
0.466116 
0.371250 
0.479241 
0.438208 
0.255226 
0.141138 
0.266172 
0.348484 
0.252522 
0.017718 
0.450747 
0.904582 
0.657065 
0.143432 
0.258497 
0.791265 
0.727380 
0.823119 
0.936303 
0.191172 
0.526944 
0.280610 
0.408387 
0.239853 
0.357556 
0.164321 
0.002530 
0.406658 
0.279618 
0.177276 
0.585658 
0.721518 
0.721261 
0.508586 
0.325926 
0.454838 
0.296881 
0.683027 
0.924728 
0.291746 
0.475994 
0.391544 
0.318896 
0.400186 
0.877593 
0.953160 
0.004383 
0.601428 
0.785578 
0.638507 
0.117015 
0.710513 
0.097750 
0.584766 
0.847565 
0.230725 
0.195988 
0.037828 
0.827547 
0.028262 
0.367239 
0.174811 
0.504073 
0.495986 
0.864881 
0.571140 
0.171016 
0.908353 
0.663638 
0.502689 
0.822085 
0.287697 
0.880965 
0.531438 
0.092594 
0.483544 
0.321797 
0.543081 
0.956704 
0.367524 
0.026461 
0.739511 
0.324885 
0.665287 
0.497846 
0.857685 
0.748632 
0.397916 
0.514114 
0.583756 
0.508244 
0.733871 
0.728590 
0.194130 
0.454893 
0.518616 
0.149086 
0.781940 
0.165433 
0.495224 
0.259175 
0.621759 
0.457112 
0.255456 
0.534401 
0.091621 
0.561533 
0.852200 
0.727491 
0.538698 
0.671617 
0.860683 
0.551928 
0.910683 
0.556750 
0.858338 
0.452763 
0.160616 
0.237215 
0.611743 
0.433722 
0.607155 
0.236656 
0.933525 
0.703409 
0.675635 
0.393636 
0.647504 
0.449255 
0.989972 
0.093615 
0.468374 
0.693682 
0.941818 
0.631512 
0.617116 
0.643529 
0.151533 
0.244668 
0.550142 
0.241308 
0.504064 
0.801252 
0.663515 
0.036773 
0.208030 
0.403123 
0.918238 
0.607991 
0.218300 
0.348916 
0.267919 
0.385386 
0.878275 
0.555025 
0.324908 
0.648536 
0.610404 
0.088963 
0.366805 
0.939952 
0.922814 
0.260857 
0.264573 
0.780331 
0.401908 
0.886456 
0.452187 
0.496989 
0.372962 
0.381710 
0.458086 
0.717785 
0.729951 
0.336132 
0.464298 
0.377706 
0.063950 
0.982702 
0.596293 
0.450137 
0.972011 
0.688654 
0.487983 
0.357346 
0.431488 
0.206195 
0.544850 
0.957502 
0.187005 
0.770205 
0.837381 
0.908314 
0.630663 
0.593594 
0.772603 
0.273069 
0.008238 
0.268419 
0.533855 
0.225141 
0.912491 
0.112739 
0.266342 
0.479796 
0.660934 
0.835947 
0.634713 
0.806841 
0.572420 
0.491711 
0.801514 
0.441051 
0.048870 
0.987460 
0.749249 
0.578645 
0.334167 
0.593352 
0.901644 
0.842945 
0.868416 
0.103637 
0.787311 
0.405961 
0.306967 
0.026520 
0.710456 
0.843628 
0.049888 
0.245631 
0.950157 
0.110080 
0.957975 
0.345386 
0.880448 
0.276030 
0.714449 
0.049716 
0.107254 
0.858991 
0.424279 
0.562526 
0.732725 
0.960883 
0.059135 
0.119566 
0.130800 
0.802721 
0.160171 
0.525530 
0.708592 
0.990396 
0.610435 
0.291582 
0.550880 
0.540711 
0.900516 
0.070929 
0.983752 
0.905694 
0.938993 
0.671860 
0.726554 
0.093370 
0.135473 
0.810643 
0.845293 
0.102972 
0.755897 
0.321174 
0.238238 
0.839600 
0.421444 
0.659959 
0.035779 
0.740803 
0.997567 
0.384147 
0.529257 
0.784164 
0.162201 
0.901420 
0.310288 
0.679309 
0.459185 
0.664184 
0.682898 
0.242329 
0.543730 
0.164230 
0.906589 
0.572722 
0.845281 
0.975702 
0.796368 
0.554124 
0.873106 
0.267553 
0.941065 
0.990263 
0.917370 
0.037202 
0.585980 
0.421007 
0.045529 
0.925214 
0.751346 
0.060399 
0.722134 
0.286332 
0.964474 
0.149331 
0.597203 
0.465169 
0.411336 
0.880489 
0.224888 
0.542962 
0.947602 
0.653341 
0.034097 
0.388856 
0.873919 
0.388312 
0.746907 
0.741106 
0.229778 
0.923802 
0.172041 
0.830253 
0.410845 
0.770337 
0.340022 
0.891335 
0.855426 
0.131903 
0.682366 
0.149580 
0.410368 
0.549948 
0.551803 
0.772998 
0.740750 
0.907675 
0.463715 
0.400803 
0.943901 
0.095615 
0.558748 
0.317395 
0.944771 
0.618902 
0.464386 
0.879032 
0.732685 
0.589215 
0.100644 
0.021878 
0.084297 
0.455153 
0.188319 
0.075126 
0.329067 
0.227287 
0.337171 
0.552447 
0.968311 
0.227230 
0.400146 
0.990771 
0.462019 
0.984530 
0.498440 
0.988004 
0.538099 
0.132896 
0.339203 
0.729008 
0.415644 
0.924721 
0.070292 
0.379396 
0.565159 
0.756592 
0.733666 
0.381245 
0.904656 
0.193021 
0.890348 
0.258176 
0.413657 
0.003279 
0.545836 
0.345007 
0.645588 
0.932185 
0.587708 
0.260603 
0.899946 
0.017246 
0.227921 
0.716858 
0.099628 
0.717018 
0.239581 
0.412839 
0.289440 
0.151618 
0.309802 
0.633439 
0.022592 
0.624160 
0.200189 
0.397056 
0.465831 
0.798358 
0.221004 
0.382386 
0.906787 
0.123876 
0.045057 
0.689604 
0.298121 
0.996560 
0.183932 
0.555147 
0.591298 
0.499037 
0.462560 
0.152769 
0.258559 
0.722380 
0.996347 
0.555310 
0.643679 
0.680807 
0.952810 
0.366399 
0.469222 
0.128540 
0.079807 
0.544008 
0.672307 
0.843507 
0.598325 
0.062401 
0.737646 
0.153585 
0.085107 
0.049007 
0.080403 
0.213290 
0.388538 
0.287982 
0.149711 
0.633817 
0.113691 
0.734481 
0.890022 
0.442910 
0.408086 
0.413853 
0.878702 
0.527216 
0.127744 
0.211536 
0.168248 
0.354724 
0.364559 
0.551677 
0.131342 
0.710388 
0.354988 
0.647080 
0.425283 
0.757335 
0.242964 
0.188444 
0.152736 
0.991214 
0.974719 
0.922101 
0.451303 
0.201801 
0.375567 
0.743166 
0.901101 
0.860453 
0.973289 
0.151505 
0.123158 
0.193804 
0.257629 
0.728177 
0.223366 
0.597042 
0.174089 
0.575221 
0.458983 
0.882938 
0.006502 
0.367411 
0.162737 
0.076292 
0.901151 
0.427892 
0.546477 
0.087037 
0.588896 
0.407885 
0.612578 
0.040347 
0.047968 
0.457422 
0.819527 
0.698852 
0.549945 
0.200926 
0.637987 
0.045330 
0.720746 
0.424304 
0.515791 
0.911281 
0.749634 
0.962075 
0.757375 
0.438088 
0.455497 
0.511583 
0.233610 
0.439687 
0.144218 
0.523388 
0.403795 
0.054964 
0.364322 
0.098576 
0.609969 
0.223401 
0.580666 
0.330510 
0.746495 
0.781607 
0.119135 
0.430989 
0.145344 
0.099509 
0.513675 
0.185055 
0.725277 
0.038609 
0.175247 
0.848634 
0.829909 
0.203962 
0.487528 
0.535436 
0.195502 
0.914187 
0.282773 
0.951048 
0.683168 
0.617910 
0.548732 
0.777954 
0.233193 
0.116576 
0.353428 
0.099620 
0.380837 
0.977993 
0.614111 
0.575922 
0.449713 
0.445774 
0.407442 
0.898586 
0.416342 
0.680156 
0.035956 
0.178071 
0.093909 
0.125196 
0.188529 
0.465441 
0.171773 
0.521054 
0.675291 
0.868890 
0.756937 
0.984232 
0.219840 
0.172999 
0.922728 
0.898937 
0.377197 
0.137199 
0.142254 
0.006772 
0.807930 
0.824806 
0.914956 
0.348943 
0.456638 
0.645615 
0.673504 
0.975907 
0.613359 
0.927750 
0.928172 
0.997718 
0.268294 
0.946144 
0.112128 
0.869964 
0.109511 
0.898298 
0.635193 
0.600994 
0.468422 
0.513905 
0.544773 
0.690247 
0.563029 
0.203873 
0.375177 
0.630856 
0.515162 
0.128802 
0.829810 
0.839441 
0.323476 
0.158390 
0.857178 
0.317448 
0.269635 
0.860606 
0.801220 
0.262470 
0.898853 
0.125889 
0.856531 
0.824722 
0.453873 
0.128094 
0.082199 
0.174168 
0.727455 
0.486973 
0.506925 
0.919943 
0.215467 
0.135851 
0.441895 
0.222084 
0.236069 
0.275397 
0.138119 
0.176380 
0.372320 
0.986729 
0.858851 
0.733991 
0.589775 
0.238835 
0.242430 
0.018924 
0.816261 
0.712925 
0.774855 
0.295749 
0.798322 
0.508615 
0.117903 
0.876170 
0.205440 
0.291950 
0.290844 
0.875444 
0.160987 
0.722810 
0.805566 
0.741832 
0.792085 
0.697821 
0.778401 
0.365185 
0.909672 
0.553157 
0.856432 
0.957511 
0.805097 
0.417961 
0.602931 
0.523061 
0.608298 
0.175605 
0.518055 
0.496826 
0.846213 
0.572806 
0.176046 
0.129696 
0.657252 
0.213118 
0.445418 
0.745189 
0.665510 
0.299396 
0.772555 
0.355395 
0.090120 
0.727179 
0.716518 
0.081067 
0.736509 
0.083746 
0.891691 
0.888089 
0.569339 
0.847043 
0.126624 
0.204711 
0.049470 
0.692382 
0.293286 
0.747850 
0.534739 
0.327923 
0.921022 
0.828465 
0.522990 
0.122679 
0.092340 
0.672961 
0.710431 
0.980868 
0.962349 
0.402068 
0.186915 
0.389354 
0.885119 
0.595220 
0.628196 
0.960662 
0.239762 
0.318027 
0.286204 
0.918012 
0.808547 
0.977465 
0.173099 
0.805188 
0.364400 
0.561876 
0.288411 
0.718680 
0.328519 
0.676989 
0.833545 
0.042501 
0.964167 
0.132197 
0.136864 
0.652430 
0.330120 
0.977635 
0.663341 
0.915637 
0.144173 
0.104044 
0.939679 
0.734526 
0.023260 
0.108073 
0.107345 
0.281817 
0.862780 
0.109755 
0.574089 
0.921953 
0.978371 
0.904401 
0.050672 
0.412456 
0.311648 
0.423227 
0.914799 
0.284658 
0.574951 
0.806544 
0.718628 
0.901144 
0.055391 
0.860098 
0.007755 
0.717890 
0.710901 
0.175537 
0.869655 
0.156562 
0.911964 
0.233808 
0.686059 
0.639899 
0.157594 
0.289686 
0.198522 
0.931812 
0.540734 
0.952564 
0.217463 
0.645033 
0.786224 
0.400258 
0.836795 
0.163050 
0.203313 
0.343980 
0.249130 
0.345701 
0.986380 
0.623951 
0.596264 
0.577292 
0.403034 
0.545446 
0.777425 
0.470403 
0.088387 
0.933904 
0.043598 
0.648696 
0.733023 
0.093224 
0.785547 
0.924824 
0.564250 
0.454247 
0.793536 
0.283779 
0.992102 
0.985979 
0.536180 
0.894398 
0.235551 
0.478506 
0.907567 
0.663745 
0.435754 
0.853989 
0.396035 
0.468605 
0.449999 
0.323984 
0.870819 
0.883295 
0.343010 
0.953921 
0.309728 
0.931514 
0.161898 
0.952939 
0.878519 
0.507171 
0.018244 
0.778155 
0.359457 
0.848549 
0.433062 
0.605782 
0.377580 
0.721410 
0.316173 
0.949351 
0.849746 
0.775598 
0.299517 
0.872699 
0.375083 
0.798420 
0.816787 
0.999013 
0.045089 
0.236803 
0.430906 
0.847240 
0.386435 
0.122807 
0.915262 
0.182328 
0.590777 
0.812350 
0.261161 
0.985808 
0.441257 
0.225261 
0.184719 
0.698240 
0.875195 
0.768964 
0.261435 
0.985706 
0.044184 
0.344146 
0.673185 
0.056734 
0.054571 
0.564865 
0.650946 
0.237028 
0.626916 
0.530038 
0.514284 
0.701628 
0.373691 
0.614033 
0.307287 
0.092897 
0.662921 
0.028575 
0.384545 
0.072052 
0.291918 
0.213160 
0.721997 
0.705025 
0.715120 
0.361223 
0.546470 
0.357832 
0.940956 
0.444792 
0.110819 
0.865122 
0.035555 
0.223264 
0.137963 
0.302575 
0.254192 
0.731184 
0.637686 
0.975245 
0.331082 
0.420691 
0.480426 
0.909834 
0.572125 
0.424836 
0.454418 
0.951208 
0.582946 
0.391435 
0.558078 
0.986554 
0.783623 
0.088222 
0.378498 
0.769505 
0.199408 
0.353076 
0.217679 
0.003305 
0.191625 
0.450239 
0.681829 
0.468066 
0.128376 
0.803684 
0.075973 
0.123078 
0.871057 
0.685440 
0.511908 
0.616499 
0.832547 
0.010568 
0.522007 
0.383859 
0.058756 
0.714305 
0.778116 
0.716650 
0.119850 
0.323630 
0.866184 
0.675169 
0.239316 
0.028475 
0.263856 
0.748558 
0.430818 
0.950183 
0.084484 
0.016428 
0.614610 
0.213516 
0.753660 
0.712053 
0.406530 
0.242931 
0.529312 
0.792373 
0.771542 
0.372952 
0.436001 
0.986685 
0.896192 
0.735465 
0.220711 
0.069136 
0.088590 
